{  
    "image_path":"./dataset/leftImg8bit/train/",
    "label_path":"./dataset/gtFine/train/",
    "image_suffix":"leftImg8bit.png",
    "label_suffix":"gtFine_color.png",
    "features_save_path":"./dataset/128x256/features_Fine_train/",
    "labels_save_path":"./dataset/128x256/labels_Fine_train/",
    "area_list":"./dataset/128x256/features_Fine_train/area.txt",
    "height":256,
    "width":128
 }